module github.com/filebrowser/filebrowser/v2

require (
	github.com/DataDog/zstd v1.4.0 // indirect
	github.com/GeertJohan/go.rice v1.0.0
	github.com/Sereal/Sereal v0.0.0-20190430203904-6faf9605eb56 // indirect
	github.com/asdine/storm v2.1.2+incompatible
	github.com/caddyserver/caddy v1.0.3
	github.com/daaku/go.zipexe v1.0.1 // indirect
	github.com/dgrijalva/jwt-go v3.2.0+incompatible
	github.com/disintegration/imaging v1.6.2
	github.com/dsnet/compress v0.0.1 // indirect
	github.com/golang/snappy v0.0.1 // indirect
	github.com/gorilla/handlers v1.5.1
	github.com/gorilla/mux v1.7.3
	github.com/gorilla/websocket v1.4.1
	github.com/maruel/natural v0.0.0-20180416170133-dbcb3e2e8cf1
	github.com/marusama/semaphore/v2 v2.4.1
	github.com/mholt/archiver v3.1.1+incompatible
	github.com/mitchellh/go-homedir v1.1.0
	github.com/nwaples/rardecode v1.0.0 // indirect
	github.com/pelletier/go-toml v1.6.0
	github.com/pierrec/lz4 v0.0.0-20190131084431-473cd7ce01a1 // indirect
	github.com/rs/cors v1.7.0
	github.com/spf13/afero v1.2.2
	github.com/spf13/cobra v0.0.5
	github.com/spf13/jwalterweatherman v1.1.0 // indirect
	github.com/spf13/pflag v1.0.5
	github.com/spf13/viper v1.6.1
	github.com/stretchr/testify v1.6.1
	github.com/tomasen/realip v0.0.0-20180522021738-f0c99a92ddce
	github.com/vmihailenco/msgpack v4.0.4+incompatible // indirect
	github.com/xi2/xz v0.0.0-20171230120015-48954b6210f8 // indirect
	go.etcd.io/bbolt v1.3.3
	golang.org/x/crypto v0.0.0-20200510223506-06a226fb4e37
	golang.org/x/image v0.0.0-20191009234506-e7c1f5e7dbb8
	golang.org/x/mod v0.3.0
	golang.org/x/net v0.0.0-20200528225125-3c3fba18258b // indirect
	golang.org/x/sys v0.0.0-20200523222454-059865788121 // indirect
	golang.org/x/text v0.3.2 // indirect
	google.golang.org/appengine v1.5.0 // indirect
	gopkg.in/natefinch/lumberjack.v2 v2.0.0
	gopkg.in/yaml.v2 v2.2.7
)

go 1.14
